<?xml version="1.0" encoding="UTF-8"?>
<svg width="149px" height="106px" viewBox="0 0 149 106" version="1.1" xmlns="http://www.w3.org/2000/svg" xmlns:xlink="http://www.w3.org/1999/xlink">
    <!-- Generator: Sketch 48.2 (47327) - http://www.bohemiancoding.com/sketch -->
    <title>Group 5</title>
    <desc>Created with Sketch.</desc>
    <defs></defs>
    <g id="Home" stroke="none" stroke-width="1" fill="none" fill-rule="evenodd" transform="translate(-154.000000, -1970.000000)" font-family=".SFNSDisplay, .SF NS Display" font-size="144" font-weight="normal" opacity="0.15">
        <g id="Our-Services" transform="translate(145.000000, 1390.000000)" fill="#9D2B4A">
            <g id="5" transform="translate(0.000000, 545.000000)">
                <g id="Group-5">
                    <text id="B">
                        <tspan x="0" y="139">B</tspan>
                    </text>
                    <text id="C">
                        <tspan x="64" y="139">C</tspan>
                    </text>
                </g>
            </g>
        </g>
    </g>
</svg>