<?xml version="1.0" encoding="UTF-8"?>
<svg width="148px" height="44px" viewBox="0 0 148 44" version="1.1" xmlns="http://www.w3.org/2000/svg" xmlns:xlink="http://www.w3.org/1999/xlink">
    <!-- Generator: Sketch 48.2 (47327) - http://www.bohemiancoding.com/sketch -->
    <title>Page 1</title>
    <desc>Created with Sketch.</desc>
    <defs>
        <polygon id="path-1" points="0 44 148 44 148 0 0 0"></polygon>
    </defs>
    <g id="Home" stroke="none" stroke-width="1" fill="none" fill-rule="evenodd" transform="translate(-145.000000, -12.000000)">
        <g id="menu.-bar">
            <g id="Page-1" transform="translate(145.000000, 12.000000)">
                <path d="M49,20.347372 L51.8117413,20.347372 L51.8117413,22.2877171 C51.8117413,22.8666705 51.7519451,23.3592065 51.7519451,23.3592065 L51.8117413,23.3592065 C52.5292959,21.6504427 54.6529411,20 57.0153314,20 C59.5579897,20 61.0533349,21.1293847 61.5616027,23.3298331 L61.6218386,23.3298331 C62.4589857,21.5635997 64.5527327,20 67.005257,20 C70.4149605,20 72,21.8824498 72,25.6175502 L72,35 L69.099004,35 L69.099004,26.2258769 C69.099004,24.1697412 68.6804305,22.5482461 66.4072948,22.5482461 C64.2836497,22.5482461 62.6981706,24.2855318 62.1600046,26.2837723 C62.010514,26.892099 61.9507178,27.5578953 61.9507178,28.3109604 L61.9507178,35 L59.0492822,35 L59.0492822,26.2258769 C59.0492822,24.3144795 58.7507408,22.5482461 56.4173692,22.5482461 C54.2044694,22.5482461 52.6493281,24.3144795 52.0808243,26.3995629 C51.9313338,26.978942 51.9014356,27.6447383 51.9014356,28.3109604 L51.9014356,35 L49,35 L49,20.347372 Z" id="Fill-1" fill="#FFFFFE"></path>
                <mask id="mask-2" fill="white">
                    <use xlink:href="#path-1"></use>
                </mask>
                <g id="Clip-4"></g>
                <path d="M76.0305985,36 L79,36 L79,20.949089 L76.0305985,20.949089 L76.0305985,36 Z M76,17.9445914 L79,17.9445914 L79,15 L76,15 L76,17.9445914 Z" id="Fill-3" fill="#FFFFFE" mask="url(#mask-2)"></path>
                <g id="Group-2" mask="url(#mask-2)" fill="#FFFFFE">
                    <path d="M91.0211959,20 C94.7805196,20 96.6449528,22.2340443 96.6449528,22.2340443 L95.2835032,24.2865781 C95.2835032,24.2865781 93.6849204,22.5353785 91.139545,22.5353785 C88.1207732,22.5353785 85.9304451,24.8297784 85.9304451,27.9696003 C85.9304451,31.0792444 88.1207732,33.4641777 91.2287419,33.4641777 C94.0108155,33.4641777 95.8456614,31.4112002 95.8456614,31.4112002 L97,33.5547111 C97,33.5547111 94.9280209,36 91.0211959,36 C86.3155147,36 83,32.5885779 83,27.9997781 C83,23.4713339 86.3155147,20 91.0211959,20" id="Fill-5"></path>
                    <path d="M106.531339,33.5431707 C108.865495,33.5431707 111.074755,31.993141 111.074755,28.2197539 C111.074755,25.5874982 109.612133,22.9552425 106.624668,22.9552425 C104.134962,22.9552425 102.080794,24.8857927 102.080794,28.2489916 C102.080794,31.4664319 103.916735,33.5431707 106.531339,33.5431707 M106.126453,20.4984132 C109.767682,20.4984132 110.981883,22.8382916 110.981883,22.8382916 L111.043645,22.8382916 C111.043645,22.8382916 110.981883,22.3997256 110.981883,21.8437788 L110.981883,15 L114,15 L114,35.6487173 L111.136975,35.6487173 L111.136975,34.2453062 C111.136975,33.6596917 111.168085,33.2507934 111.168085,33.2507934 L111.105865,33.2507934 C111.105865,33.2507934 109.829902,36 105.939793,36 C101.676366,36 99,32.8414652 99,28.2489916 C99,23.5399971 101.956355,20.4984132 106.126453,20.4984132" id="Fill-6"></path>
                    <path d="M128.063693,26.2188445 C127.974741,23.5924888 126.373159,22.3245777 124.444981,22.3245777 C122.250382,22.3245777 120.470458,23.7132 120.055346,26.2188445 L128.063693,26.2188445 Z M124.504719,20 C128.746099,20 131,23.2001775 131,27.1547999 C131,27.5471112 130.911483,28.422711 130.911483,28.422711 L119.966394,28.422711 C120.114648,31.7737775 122.457938,33.4641777 125.127387,33.4641777 C127.708319,33.4641777 129.576759,31.6832441 129.576759,31.6832441 L130.763229,33.8267551 C130.763229,33.8267551 128.538543,36 124.949045,36 C120.233251,36 117,32.5282223 117,28.0002219 C117,23.1398219 120.233251,20 124.504719,20 Z" id="Fill-7"></path>
                    <path d="M145.063693,26.2188445 C144.974741,23.5924888 143.373159,22.3245777 141.444981,22.3245777 C139.249945,22.3245777 137.470458,23.7132 137.05491,26.2188445 L145.063693,26.2188445 Z M141.504283,20 C145.745663,20 148,23.2001775 148,27.1547999 C148,27.5471112 147.911047,28.422711 147.911047,28.422711 L136.966394,28.422711 C137.114648,31.7737775 139.457938,33.4641777 142.127387,33.4641777 C144.707883,33.4641777 146.576759,31.6832441 146.576759,31.6832441 L147.762793,33.8267551 C147.762793,33.8267551 145.538543,36 141.949045,36 C137.233251,36 134,32.5282223 134,28.0002219 C134,23.1398219 137.233251,20 141.504283,20 Z" id="Fill-8"></path>
                    <path d="M49.4750791,43.5590218 L50.516414,43.5590218 C51.1228051,43.5590218 51.606173,43.3801133 51.9652089,43.0227457 C52.324681,42.6649285 52.5044171,42.156073 52.5044171,41.4966286 C52.5044171,40.8416794 52.3251172,40.3350715 51.9669539,39.9777039 C51.6087905,39.6198867 51.1249864,39.4409782 50.516414,39.4409782 L49.4750791,39.4409782 L49.4750791,43.5590218 Z M49,44 L49,39 L50.5657105,39 C51.3016687,39 51.8914822,39.2216129 52.3347148,39.6648386 C52.7779474,40.1080644 53,40.7185112 53,41.4966286 C53,42.2832869 52.7792562,42.8973299 52.3377686,43.338308 C51.8971535,43.7792862 51.3060312,44 50.5657105,44 L49,44 Z" id="Fill-9"></path>
                    <polygon id="Fill-10" points="66 44 66 39 68.8690076 39 68.8690076 39.4409782 66.4987786 39.4409782 66.4987786 41.2601816 68.4334351 41.2601816 68.4334351 41.7011598 66.4987786 41.7011598 66.4987786 43.5590218 69 43.5590218 69 44"></polygon>
                    <path d="M81,43.3817929 L81.2818617,43.018781 L81.3427577,43.0761673 C81.3675511,43.1009477 81.4223575,43.1435527 81.507177,43.2035475 C81.5924315,43.2644118 81.6807308,43.3178854 81.7725098,43.3635336 C81.8647238,43.4096166 81.9817312,43.4513521 82.1239669,43.4896096 C82.2662027,43.5274324 82.4075685,43.5465612 82.5489343,43.5465612 C82.8242714,43.5465612 83.0539365,43.4700461 83.2379295,43.3165812 C83.4210526,43.1631163 83.5132666,42.9609599 83.5132666,42.7101122 C83.5132666,42.4901313 83.430187,42.3023215 83.2644628,42.1453787 C83.0987386,41.9884358 82.8982166,41.8606208 82.6628969,41.7619337 C82.4280122,41.6636814 82.1909526,41.5606469 81.9525881,41.4528302 C81.7142236,41.3450135 81.5119617,41.1954613 81.3462375,41.0024346 C81.1805133,40.8098426 81.0974337,40.5759499 81.0974337,40.299887 C81.0974337,39.9416572 81.2396694,39.6355969 81.5241409,39.3812712 C81.8086124,39.1269455 82.169204,39 82.6059156,39 C83.1009134,39 83.5150065,39.1399878 83.8494998,39.4195287 L83.8995215,39.4669159 L83.6646368,39.8664464 C83.6328839,39.8351448 83.5872118,39.7960177 83.5267508,39.7490653 C83.4662897,39.7021129 83.3449326,39.6412486 83.1622445,39.5660377 C82.9795563,39.4908269 82.7942584,39.4530041 82.6059156,39.4530041 C82.308395,39.4530041 82.0635059,39.5356056 81.8721183,39.7003739 C81.6802958,39.8647074 81.584602,40.0603426 81.584602,40.2868446 C81.584602,40.4972611 81.6672466,40.674637 81.8334058,40.819407 C81.9991301,40.9637423 82.200087,41.0841666 82.4362766,41.1806799 C82.6729013,41.2767585 82.9103958,41.3789236 83.1483254,41.4867403 C83.3871248,41.5941223 83.5885167,41.7488914 83.753371,41.950613 C83.9177903,42.1518998 84,42.3997044 84,42.6931571 C84,43.0639944 83.8677686,43.3744022 83.6020009,43.6248152 C83.3366681,43.8747935 82.9812962,44 82.5354502,44 C82.2418443,44 81.9682471,43.9482654 81.7142236,43.8447961 C81.4597651,43.7413268 81.2779469,43.6369881 81.1678991,43.5322146 L81,43.3817929 Z" id="Fill-11"></path>
                    <polygon id="Fill-12" points="97 44 98 44 98 39 97 39"></polygon>
                    <path d="M109,41.4950004 C109,40.7946266 109.264671,40.2033736 109.794508,39.7221111 C110.32385,39.2408486 110.98404,39 111.775575,39 C112.150278,39 112.50119,39.0473872 112.828311,39.1408573 C113.154937,39.2347622 113.385904,39.3282323 113.521213,39.4199635 L113.735825,39.5642988 L113.444885,39.91992 C113.398791,39.8842709 113.329401,39.839927 113.238204,39.7877576 C113.146015,39.7351535 112.957672,39.6638553 112.673176,39.5742979 C112.38868,39.4847405 112.097244,39.439527 111.798374,39.439527 C111.139671,39.439527 110.602399,39.6360316 110.187054,40.0277367 C109.770718,40.4194418 109.563045,40.906356 109.563045,41.4880445 C109.563045,42.0836449 109.770718,42.5779497 110.187054,42.970959 C110.602399,43.3639684 111.123315,43.560473 111.74881,43.560473 C112.067506,43.560473 112.371828,43.5004782 112.659794,43.3804887 C112.948255,43.2609338 113.157415,43.1418138 113.287272,43.0231284 L113.483049,42.851839 L113.483049,42.032345 L112.541336,42.032345 L112.541336,41.6058604 L114,41.6058604 L114,43.9160943 L113.497918,43.9160943 L113.497918,43.5500391 L113.505849,43.3452743 L113.490979,43.3452743 C113.475119,43.3630989 113.450337,43.3874446 113.416138,43.417442 C113.381443,43.4478741 113.306602,43.499174 113.192109,43.5717764 C113.077121,43.6448135 112.95569,43.71046 112.828311,43.768281 C112.700932,43.8269716 112.533406,43.8795757 112.326725,43.9278324 C112.120044,43.976089 111.909397,44 111.694786,44 C110.936955,44 110.298077,43.7613251 109.778648,43.2831058 C109.259715,42.8053213 109,42.2092861 109,41.4950004" id="Fill-13"></path>
                    <path d="M127,44 L127,39 L127.487445,39 L130.102972,42.6006473 L130.526376,43.2740268 L130.54112,43.2740268 C130.512094,42.9989212 130.498272,42.7741616 130.498272,42.6006473 L130.498272,39 L131,39 L131,44 L130.512094,44 L127.896568,40.4029488 L127.473163,39.7255237 L127.45888,39.7255237 C127.487445,40.0010788 127.501728,40.2267374 127.501728,40.4029488 L127.501728,44 L127,44 Z" id="Fill-14"></path>
                    <path d="M143,43.3817929 L143.281862,43.018781 L143.342758,43.0761673 C143.367551,43.1009477 143.422358,43.1435527 143.507177,43.2035475 C143.592431,43.2644118 143.680731,43.3178854 143.77251,43.3635336 C143.864724,43.4096166 143.981731,43.4513521 144.123967,43.4896096 C144.266203,43.5274324 144.407569,43.5465612 144.549369,43.5465612 C144.824271,43.5465612 145.053936,43.4700461 145.23793,43.3165812 C145.421053,43.1631163 145.513267,42.9609599 145.513267,42.7101122 C145.513267,42.4901313 145.430187,42.3023215 145.264463,42.1453787 C145.098739,41.9884358 144.898217,41.8606208 144.663332,41.7619337 C144.428012,41.6636814 144.190953,41.5606469 143.952588,41.4528302 C143.714224,41.3450135 143.511962,41.1954613 143.346237,41.0024346 C143.180513,40.8098426 143.097434,40.5759499 143.097434,40.299887 C143.097434,39.9416572 143.239669,39.6355969 143.524141,39.3812712 C143.808612,39.1269455 144.169204,39 144.605916,39 C145.100913,39 145.515441,39.1399878 145.8495,39.4195287 L145.899522,39.4669159 L145.664637,39.8664464 C145.632884,39.8351448 145.587212,39.7960177 145.526751,39.7490653 C145.46629,39.7021129 145.344933,39.6412486 145.162244,39.5660377 C144.979556,39.4908269 144.794258,39.4530041 144.605916,39.4530041 C144.308395,39.4530041 144.063506,39.5356056 143.872118,39.7003739 C143.680296,39.8647074 143.584602,40.0603426 143.584602,40.2868446 C143.584602,40.4972611 143.667247,40.674637 143.833406,40.819407 C143.99913,40.9637423 144.200087,41.0841666 144.436277,41.1806799 C144.672901,41.2767585 144.910396,41.3789236 145.148325,41.4867403 C145.387125,41.5941223 145.588517,41.7488914 145.753371,41.950613 C145.91779,42.1518998 146,42.3997044 146,42.6931571 C146,43.0639944 145.867769,43.3744022 145.602001,43.6248152 C145.336668,43.8747935 144.981296,44 144.53545,44 C144.241844,44 143.968247,43.9482654 143.714224,43.8447961 C143.459765,43.7413268 143.277947,43.6369881 143.168334,43.5322146 L143,43.3817929 Z" id="Fill-15"></path>
                    <polygon id="Fill-16" points="13.5 33 24 0 3 0"></polygon>
                    <polygon id="Fill-17" points="28 11 17 44 28 44"></polygon>
                    <polygon id="Fill-18" points="0 11 11 44 0 44"></polygon>
                    <polygon id="Fill-19" points="33 44 39 44 39 0 33 0"></polygon>
                </g>
            </g>
        </g>
    </g>
</svg>